{
"type": "FeatureCollection",
"name": "alu_60_proj",
"crs": { "type": "name", "properties": { "name": "urn:ogc:def:crs:EPSG::3338" } },
"features": [
{ "type": "Feature", "properties": { "name": "alu_60" }, "geometry": { "type": "Polygon", "coordinates": [ [ [ 1013550.65404194931034, 961990.966619537095539 ], [ 968821.601114167366177, 1031048.906053989310749 ], [ 936209.9872910954291, 1082639.218263924354687 ], [ 899709.367128700716421, 1142824.787221418228 ], [ 869838.197749528335407, 1229363.322040483588353 ], [ 851827.639741499442607, 1273291.512303968658671 ], [ 810315.499942506081425, 1400902.905019392259419 ], [ 684241.593886304181069, 1458009.552361922804266 ], [ 573981.836324956733733, 1454056.015238209161907 ], [ 532250.055574646452442, 1422427.718248500023037 ], [ 480155.496595719538163, 1466347.893749613082036 ], [ 450543.621684564335737, 1497544.923599059227854 ], [ 392119.128634129301645, 1536641.012933561112732 ], [ 336557.630138931563124, 1524027.843452966539189 ], [ 268291.331478472682647, 1464599.219986202660948 ], [ 219800.69231562060304, 1422949.070391679415479 ], [ 157981.874529754219111, 1374985.272763935849071 ], [ 133738.478255421301583, 1315750.354463384021074 ], [ 109650.321374892053427, 1197071.187785435700789 ], [ 90332.46152398729464, 1114930.386404104763642 ], [ 31468.686570917401696, 1005988.474550661863759 ], [ -36180.726434849493671, 902317.945528837153688 ], [ -94110.183832835260546, 840429.380482361884788 ], [ -149171.875603234977461, 791529.445755956112407 ], [ -255178.005018402822316, 712891.812052566208877 ], [ -310425.901096800458618, 662720.744046140345745 ], [ -382576.540955402306281, 622982.192854441236705 ], [ -501934.285713031888008, 585082.325608845683746 ], [ -633372.5471031103516, 537368.276470472803339 ], [ -737617.775231089442968, 514892.184524261043407 ], [ -843499.792936202487908, 482373.157441415765788 ], [ -912815.615639319061302, 455489.534519680193625 ], [ -1033003.284814586979337, 437184.232540664612316 ], [ -1139656.865853590657935, 419107.852630502078682 ], [ -1243327.394875415135175, 409443.650772535474971 ], [ -1316877.015992096392438, 412516.738138759857975 ], [ -1420797.28353989450261, 438436.256346435518935 ], [ -1500746.589819437358528, 457764.660062368959188 ], [ -1681730.733704995829612, 502571.41413112427108 ], [ -1751137.274321302305907, 523656.945457597030327 ], [ -1848657.856706238817424, 571099.390942160738632 ], [ -1908400.195464578457177, 609756.198374027619138 ], [ -1954085.513338602846488, 656320.080053321318701 ], [ -2019099.234928560676053, 707276.780758963897824 ], [ -2082355.828907979186624, 795133.161285933922045 ], [ -2121012.636339846067131, 873325.339954937226139 ], [ -2144137.582808349747211, 949966.413173000444658 ], [ -2162985.473004413302988, 1055112.048842936521396 ], [ -2218789.116156874690205, 1237275.797270347131416 ], [ -2305294.261885041836649, 1442084.402612289180979 ], [ -2397721.369783515110612, 1540241.029737210134044 ], [ -2501291.530983097385615, 1542664.894470487954095 ], [ -2495434.039406411349773, 1498120.198431269265711 ], [ -2481965.276137532666326, 1404624.08740867045708 ], [ -2462142.472318256273866, 1373659.628195111872628 ], [ -2436197.401480352971703, 1293278.83887385413982 ], [ -2367669.424669316038489, 1087694.908440744504333 ], [ -2301996.780225404072553, 930431.987297468003817 ], [ -2231711.675803828053176, 811825.873586058267392 ], [ -2176581.797023156192154, 721773.083545913919806 ], [ -2086968.288885646732524, 621616.809745168080553 ], [ -1997135.139796818140894, 539471.093952451366931 ], [ -1898735.993606611620635, 461278.915283448295668 ], [ -1794186.900779517367482, 400658.012719839112833 ], [ -1717751.849721055245027, 370347.561438034288585 ], [ -1611445.629283419810236, 339158.546350959688425 ], [ -1506896.536456325557083, 317194.451219217153266 ], [ -1369840.582834252389148, 298744.611308553488925 ], [ -1251234.469122844282538, 283369.744716333865654 ], [ -1123842.717358736088499, 280294.771397889591753 ], [ -1018415.060726373572834, 297866.047503283945844 ], [ -787352.779940442414954, 340915.673961499240249 ], [ -592311.615170568693429, 391872.374667141702957 ], [ -485785.75378161756089, 414275.751701519009657 ], [ -306778.378457916318439, 447441.535350451013073 ], [ -167965.297225303656887, 483023.369463873794302 ], [ -76155.379574619844789, 526951.559727359213866 ], [ -598.892321425606497, 585815.334680429077707 ], [ 84621.796789735293714, 646216.596292720991187 ], [ 144583.776499392290134, 692121.555118062300608 ], [ 201848.141684255329892, 726626.735563709400594 ], [ 253086.406450200272957, 758453.122415924677625 ], [ 297234.237665002583526, 796451.006993839051574 ], [ 337162.794889261364006, 828217.905043817125261 ], [ 367519.342086578602903, 870689.64853912871331 ], [ 389922.719120955909602, 905832.200749916722998 ], [ 411886.814252698444761, 946685.417694957810454 ], [ 442636.547437137982342, 1014774.112603359622881 ], [ 465918.488276785006747, 1049477.382911512861028 ], [ 518762.01223504828522, 1069294.811005781870335 ], [ 562220.36951388779562, 1083937.765497070504352 ], [ 600694.48972689488437, 1083706.004928169306368 ], [ 633005.13184451602865, 1076519.404948621289805 ], [ 672369.753818772616796, 1055624.945904551073909 ], [ 705234.994154067710042, 1034919.736162280198187 ], [ 787207.202120830188505, 1014448.778248708113097 ], [ 819341.291709165088832, 999815.731043955427594 ], [ 843883.158465020591393, 991459.614662264008075 ], [ 893838.291216262849048, 987076.120769312838092 ], [ 936741.043975089443848, 983482.909961753408425 ], [ 969406.724085444584489, 977006.900527884601615 ], [ 1013550.65404194931034, 961990.966619537095539 ] ] ] } }
]
}
